[
  {"timestamp":1463346047622},
  {
    "chars": [
      {
        "_": 4444444444,
        "exp": 0,
        "server":"Альсион",
        "rank":"Генерал",
        "char":"Goblinus",
        "race":"Элийцы",
        "class":"Гладиатор",
        "guild":"СтальноеБратство",
        "level":71
      },
      {
        "server":"Альсион",
        "rank":"Генерал",
        "char":"sleepo",
        "race":"Элийцы",
        "class":"Гладиатор",
        "guild":"СтальноеБратство",
        "level":71,
        "exp": 200
      },
      {
        "exp": 0,
        "server":"Альсион",
        "rank":"Генерал",
        "char":"Zimerk",
        "race":"Элийцы",
        "class":"Гладиатор",
        "guild":"СтальноеБратство",
        "level":71
      }
    ]
  }
]
