[
  {"timestamp":1463346047622},
  {
    "chars": [
      {
        "_": 4444444444,
        "total_pvp_cnt": 110,
        "last_week_pvp_cnt":1,
        "server":"Альсион",
        "rank":"Генерал",
        "this_week_pvp_cnt":397,
        "char":"Goblinus",
        "race":"Элийцы",
        "class":"Гладиатор",
        "guild":"СтальноеБратство",
        "level":71
      },
      { "total_pvp_cnt": 960,
        "last_week_pvp_cnt":683,
        "server":"Альсион",
        "rank":"Генерал",
        "this_week_pvp_cnt":397,
        "char":"sleepo",
        "race":"Элийцы",
        "class":"Гладиатор",
        "guild":"СтальноеБратство",
        "level":71
      },
      { "total_pvp_cnt": 960,
        "last_week_pvp_cnt":683,
        "server":"Альсион",
        "rank":"Генерал",
        "this_week_pvp_cnt":397,
        "char":"Zimerk",
        "race":"Элийцы",
        "class":"Гладиатор",
        "guild":"СтальноеБратство",
        "level":71
      }
    ]
  }
]
